\BOOKMARK [1][-]{section.1}{\376\377\000P\000u\000r\000p\000o\000s\000e}{}% 1
\BOOKMARK [1][-]{section.2}{\376\377\000E\000x\000e\000c\000u\000t\000i\000v\000e\000\040\000R\000o\000l\000e\000\040\000S\000p\000e\000c\000i\000f\000i\000c\000a\000t\000i\000o\000n\000s}{}% 2
\BOOKMARK [2][-]{subsection.2.1}{\376\377\000G\000P\000C}{section.2}% 3
\BOOKMARK [3][-]{subsubsection.2.1.1}{\376\377\000C\000h\000i\000e\000f\000\040\000E\000x\000e\000c\000u\000t\000i\000v\000e\000\040\000O\000f\000f\000i\000c\000e\000r\000\040\000\050\000C\000E\000O\000\051}{subsection.2.1}% 4
\BOOKMARK [3][-]{subsubsection.2.1.2}{\376\377\000F\000i\000n\000a\000n\000c\000i\000a\000l\000\040\000A\000g\000e\000n\000t\000\040\000\050\000F\000A\000\051}{subsection.2.1}% 5
\BOOKMARK [3][-]{subsubsection.2.1.3}{\376\377\000M\000P\000\040\000o\000r\000\040\000M\000P\000\040\000C\000a\000n\000d\000i\000d\000a\000t\000e}{subsection.2.1}% 6
\BOOKMARK [2][-]{subsection.2.2}{\376\377\000G\000P\000O}{section.2}% 7
\BOOKMARK [3][-]{subsubsection.2.2.1}{\376\377\000P\000r\000e\000s\000i\000d\000e\000n\000t}{subsection.2.2}% 8
\BOOKMARK [3][-]{subsubsection.2.2.2}{\376\377\000C\000h\000i\000e\000f\000\040\000F\000i\000n\000a\000n\000c\000i\000a\000l\000\040\000O\000f\000f\000i\000c\000e\000r}{subsection.2.2}% 9
\BOOKMARK [3][-]{subsubsection.2.2.3}{\376\377\000M\000P\000P\000\040\000o\000r\000\040\000M\000P\000P\000\040\000C\000a\000n\000d\000i\000d\000a\000t\000e}{subsection.2.2}% 10
\BOOKMARK [2][-]{subsection.2.3}{\376\377\000C\000o\000m\000m\000o\000n}{section.2}% 11
\BOOKMARK [3][-]{subsubsection.2.3.1}{\376\377\000R\000e\000c\000o\000r\000d\000i\000n\000g\000\040\000S\000e\000c\000r\000e\000t\000a\000r\000y}{subsection.2.3}% 12
\BOOKMARK [3][-]{subsubsection.2.3.2}{\376\377\000M\000e\000m\000b\000e\000r\000s\000h\000i\000p\000\040\000C\000h\000a\000i\000r}{subsection.2.3}% 13
\BOOKMARK [3][-]{subsubsection.2.3.3}{\376\377\000F\000u\000n\000d\000r\000a\000i\000s\000i\000n\000g\000\040\000C\000h\000a\000i\000r}{subsection.2.3}% 14
\BOOKMARK [3][-]{subsubsection.2.3.4}{\376\377\000O\000r\000g\000a\000n\000i\000z\000i\000n\000g\000\040\000C\000h\000a\000i\000r}{subsection.2.3}% 15
\BOOKMARK [3][-]{subsubsection.2.3.5}{\376\377\000C\000o\000m\000m\000u\000n\000i\000c\000a\000t\000i\000o\000n\000s\000\040\000C\000h\000a\000i\000r}{subsection.2.3}% 16
\BOOKMARK [3][-]{subsubsection.2.3.6}{\376\377\000Y\000o\000u\000n\000g\000\040\000G\000r\000e\000e\000n\000s\000\040\000C\000h\000a\000i\000r}{subsection.2.3}% 17
\BOOKMARK [3][-]{subsubsection.2.3.7}{\376\377\000A\000r\000e\000a\000\040\000C\000o\000o\000r\000d\000i\000n\000a\000t\000o\000r\000s}{subsection.2.3}% 18
\BOOKMARK [3][-]{subsubsection.2.3.8}{\376\377\000C\000o\000m\000m\000i\000t\000t\000e\000e\000\040\000C\000h\000a\000i\000r\000s}{subsection.2.3}% 19
